{
    "packages": [
        {
            "name": "a5hleyrich/wp-background-processing",
            "version": "1.0.2",
            "version_normalized": "1.0.2.0",
            "source": {
                "type": "git",
                "url": "https://github.com/deliciousbrains/wp-background-processing.git",
                "reference": "2cbee1abd1b49e1133cd8f611df4d4fc5a8b9800"
            },
            "dist": {
                "type": "zip",
                "url": "https://api.github.com/repos/deliciousbrains/wp-background-processing/zipball/2cbee1abd1b49e1133cd8f611df4d4fc5a8b9800",
                "reference": "2cbee1abd1b49e1133cd8f611df4d4fc5a8b9800",
                "shasum": ""
            },
            "require": {
                "php": ">=5.2"
            },
            "suggest": {
                "coenjacobs/mozart": "Easily wrap this library with your own prefix, to prevent collisions when multiple plugins use this library"
            },
            "time": "2020-07-31T07:00:11+00:00",
            "type": "library",
            "installation-source": "dist",
            "autoload": {
                "classmap": [
                    "classes/"
                ]
            },
            "notification-url": "https://packagist.org/downloads/",
            "license": [
                "GPL-2.0-or-later"
            ],
            "authors": [
                {
                    "name": "Delicious Brains",
                    "email": "nom@deliciousbrains.com"
                }
            ],
            "description": "WP Background Processing can be used to fire off non-blocking asynchronous requests or as a background processing tool, allowing you to queue tasks.",
            "support": {
                "issues": "https://github.com/deliciousbrains/wp-background-processing/issues",
                "source": "https://github.com/deliciousbrains/wp-background-processing/tree/1.0.2"
            },
            "install-path": "../a5hleyrich/wp-background-processing"
        },
        {
            "name": "damian-gora/tntsearch",
            "version": "dev-master",
            "version_normalized": "dev-master",
            "source": {
                "type": "git",
                "url": "https://github.com/damian-gora/tntsearch.git",
                "reference": "7258d84f1172596d41ee364e1354ae53dc0bd986"
            },
            "dist": {
                "type": "zip",
                "url": "https://api.github.com/repos/damian-gora/tntsearch/zipball/7258d84f1172596d41ee364e1354ae53dc0bd986",
                "reference": "7258d84f1172596d41ee364e1354ae53dc0bd986",
                "shasum": ""
            },
            "require": {
                "ext-mbstring": "*",
                "ext-pdo_sqlite": "*",
                "ext-sqlite3": "*",
                "php": "~5.5|~7.0"
            },
            "require-dev": {
                "phpunit/phpunit": "5.*"
            },
            "time": "2020-11-24T14:28:31+00:00",
            "default-branch": true,
            "type": "library",
            "installation-source": "source",
            "autoload": {
                "psr-4": {
                    "TeamTNT\\TNTSearchASFW\\": "src"
                },
                "files": [
                    "helper/helpers.php"
                ]
            },
            "license": [
                "MIT"
            ],
            "authors": [
                {
                    "name": "Nenad Tičarić",
                    "email": "nticaric@gmail.com",
                    "homepage": "http://www.tntstudio.us",
                    "role": "Developer"
                }
            ],
            "description": "A fully featured full text search engine written in PHP (fork)",
            "homepage": "https://github.com/damian-gora/tntsearch",
            "keywords": [
                "fulltext",
                "fuzzy search",
                "geosearch",
                "search",
                "teamtnt",
                "tntsearch"
            ],
            "support": {
                "source": "https://github.com/damian-gora/tntsearch/tree/master"
            },
            "install-path": "../damian-gora/tntsearch"
        }
    ],
    "dev": true,
    "dev-package-names": []
}
